Old/eem16/lab2/timing2_2.vcd
$date
	Mon Nov 20 12:31:43 2017
$end
$version
	Icarus Verilog
$end
$timescale
	1ps
$end
$scope module dassign2_2_tb $end
$var wire 1 ! clk $end
$var wire 1 " done $end
$var wire 8 # out0 [7:0] $end
$var wire 8 $ out1 [7:0] $end
$var wire 8 % out2 [7:0] $end
$var wire 8 & out3 [7:0] $end
$var integer 32 ' i [31:0] $end
$var reg 1 ( in $end
$scope module clock_gen $end
$var reg 1 ) clk $end
$upscope $end
$scope module deserializer $end
$var wire 1 ! clk $end
$var wire 2 * cmd [1:0] $end
$var wire 1 " done $end
$var wire 1 + in $end
$var wire 1 , long $end
$var wire 1 - new $end
$var wire 8 . out0 [7:0] $end
$var wire 8 / out1 [7:0] $end
$var wire 8 0 out2 [7:0] $end
$var wire 8 1 out3 [7:0] $end
$var wire 8 2 pwidth [7:0] $end
$var wire 1 3 type $end
$scope module pulse_width_1 $end
$var wire 8 4 c_pwidth [7:0] $end
$var wire 1 ! clk $end
$var wire 1 + in $end
$var wire 1 , long $end
$var wire 1 - new $end
$var wire 1 5 prev_in $end
$var wire 8 6 pwidth [7:0] $end
$var wire 1 3 type $end
$scope module in_reg $end
$var wire 1 ! clk $end
$var wire 1 + d $end
$var reg 1 7 q $end
$upscope $end
$scope module pwidth_reg $end
$var wire 1 ! clk $end
$var wire 8 8 d [7:0] $end
$var reg 8 9 q [7:0] $end
$upscope $end
$scope module counter $end
$var wire 1 - isNew $end
$var wire 8 : prevSum [7:0] $end
$var wire 8 ; sum [7:0] $end
$scope module mux_1 $end
$var wire 8 < a [7:0] $end
$var wire 8 = b [7:0] $end
$var wire 1 - sel $end
$var wire 8 > y [7:0] $end
$upscope $end
$upscope $end
$upscope $end
$scope module control_fsm_1 $end
$var wire 1 - clk $end
$var wire 2 ? cmd [1:0] $end
$var wire 1 " done $end
$var wire 1 , long $end
$var wire 1 3 type $end
$upscope $end
$scope module shift4_1 $end
$var wire 1 ! clk $end
$var wire 2 @ cmd [1:0] $end
$var wire 8 A in [7:0] $end
$var wire 8 B out0 [7:0] $end
$var wire 8 C out1 [7:0] $end
$var wire 8 D out2 [7:0] $end
$var wire 8 E out3 [7:0] $end
$var wire 32 F rout1 [31:0] $end
$var wire 32 G rout2 [31:0] $end
$var wire 32 H rout3 [31:0] $end
$scope module dreg_1 $end
$var wire 1 ! clk $end
$var wire 32 I d [31:0] $end
$var reg 32 J q [31:0] $end
$upscope $end
$scope module mux2_1 $end
$var wire 32 K a [31:0] $end
$var wire 32 L b [31:0] $end
$var wire 1 M sel $end
$var wire 32 N y [31:0] $end
$upscope $end
$scope module mux2_2 $end
$var wire 32 O a [31:0] $end
$var wire 32 P b [31:0] $end
$var wire 1 Q sel $end
$var wire 32 R y [31:0] $end
$upscope $end
$upscope $end
$upscope $end
$upscope $end
$scope module mux4 $end
$var wire 1 S a $end
$var wire 1 T b $end
$var wire 1 U c $end
$var wire 1 V d $end
$var wire 2 W sel [1:0] $end
$var reg 1 X y $end
$upscope $end
$enddefinitions $end
#0
$dumpvars
xX
bz W
zV
zU
zT
zS
bx R
xQ
b0 P
bx O
bx N
xM
bx L
bx K
bx J
bx I
bx H
bx G
bx F
bx E
bx D
bx C
bx B
bx A
bx @
bx ?
bx >
b1 =
bx <
bx ;
bx :
bx 9
bx 8
x7
bx 6
x5
bx 4
13
bx 2
bx 1
bx 0
bx /
bx .
x-
x,
0+
bx *
1)
0(
b0 '
bx &
bx %
bx $
bx #
0"
1!
$end
#3000
zX
#25000
0)
0!
#50000
1)
1!
#51000
b1 '
#53000
0M
0Q
b10 *
b10 ?
b10 @
0-
07
05
#75000
0)
0!
#100000
1)
1!
#101000
xQ
bx0 *
bx0 ?
bx0 @
x"
1-
b10 '
1(
1+
03
#104000
b1 4
b1 8
b1 ;
b1 >
#125000
0)
0!
#150000
1)
1!
#151000
b11 '
#153000
0Q
b10 *
b10 ?
b10 @
0"
0-
b10 <
0,
17
15
b1 9
bx00000001 L
b1 2
b1 6
b1 :
b1 A
#156000
b10 4
b10 8
b10 ;
b10 >
#175000
0)
0!
#200000
1)
1!
#201000
b100 '
#203000
b11 <
b10 9
bx00000010 L
b10 2
b10 6
b10 :
b10 A
#206000
b11 4
b11 8
b11 ;
b11 >
#225000
0)
0!
#250000
1)
1!
#251000
b101 '
#253000
b100 <
1,
b11 9
bx00000011 L
b11 2
b11 6
b11 :
b11 A
#256000
b100 4
b100 8
b100 ;
b100 >
#275000
0)
0!
#300000
1)
1!
#301000
b110 '
#303000
b101 <
b100 9
bx00000100 L
b100 2
b100 6
b100 :
b100 A
#306000
b101 4
b101 8
b101 ;
b101 >
#325000
0)
0!
#350000
1)
1!
#351000
b111 '
#353000
b110 <
b101 9
bx00000101 L
b101 2
b101 6
b101 :
b101 A
#356000
b110 4
b110 8
b110 ;
b110 >
#375000
0)
0!
#400000
1)
1!
#401000
1M
b1 *
b1 ?
b1 @
1-
b1000 '
0(
0+
13
#403000
b111 <
b110 9
bx00000110 L
b110 2
b110 6
b110 :
b110 A
#404000
b1 4
b1 8
b1 ;
b1 >
#406000
bx00000110 G
bx00000110 N
bx00000110 O
#409000
bx00000110 H
bx00000110 I
bx00000110 R
#425000
0)
0!
#450000
1)
1!
#451000
0"
0M
0Q
b10 *
b10 ?
b10 @
0-
b1001 '
1(
1+
03
#453000
1-
b10 <
0,
b110 #
b110 .
b110 B
07
05
b1 9
bx0000011000000001 L
b1 2
b1 6
b1 :
b1 A
bx00000110 J
bx00000110 F
bx00000110 K
#475000
0)
0!
#500000
1)
1!
#501000
b1010 '
#503000
0-
17
15
#506000
b10 4
b10 8
b10 ;
b10 >
#525000
0)
0!
#550000
1)
1!
#551000
1M
b1 *
b1 ?
b1 @
1-
b1011 '
0(
0+
13
#553000
b11 <
b10 9
bx0000011000000010 L
b10 2
b10 6
b10 :
b10 A
#554000
b1 4
b1 8
b1 ;
b1 >
#556000
bx0000011000000010 G
bx0000011000000010 N
bx0000011000000010 O
#559000
bx0000011000000010 H
bx0000011000000010 I
bx0000011000000010 R
#575000
0)
0!
#600000
1)
1!
#601000
0M
b10 *
b10 ?
b10 @
0-
b1100 '
1(
1+
03
#603000
b10 #
b10 .
b10 B
b110 $
b110 /
b110 C
b10 <
1-
bx0000011000000010 J
bx0000011000000010 F
bx0000011000000010 K
b1 9
bx000001100000001000000001 L
b1 2
b1 6
b1 :
b1 A
07
05
#625000
0)
0!
#650000
1)
1!
#651000
b1101 '
#653000
0-
17
15
#656000
b10 4
b10 8
b10 ;
b10 >
#675000
0)
0!
#700000
1)
1!
#701000
1M
b1 *
b1 ?
b1 @
1-
b1110 '
0(
0+
13
#703000
b11 <
b10 9
bx000001100000001000000010 L
b10 2
b10 6
b10 :
b10 A
#704000
b1 4
b1 8
b1 ;
b1 >
#706000
bx000001100000001000000010 G
bx000001100000001000000010 N
bx000001100000001000000010 O
#709000
bx000001100000001000000010 H
bx000001100000001000000010 I
bx000001100000001000000010 R
#725000
0)
0!
#750000
1)
1!
#751000
0M
b10 *
b10 ?
b10 @
0-
b1111 '
1(
1+
03
#753000
1-
b10 <
b10 $
b10 /
b10 C
b110 %
b110 0
b110 D
07
05
b1 9
b110000000100000001000000001 L
b1 2
b1 6
b1 :
b1 A
bx000001100000001000000010 J
bx000001100000001000000010 F
bx000001100000001000000010 K
#775000
0)
0!
#800000
1)
1!
#801000
0M
b10 *
b10 ?
b10 @
0-
b10000 '
0(
0+
13
#803000
1M
b1 *
b1 ?
b1 @
1-
17
15
#806000
b110000000100000001000000001 G
b110000000100000001000000001 N
b110000000100000001000000001 O
#809000
b110000000100000001000000001 H
b110000000100000001000000001 I
b110000000100000001000000001 R
#825000
0)
0!
#850000
1)
1!
#851000
0M
b10 *
b10 ?
b10 @
0-
b10001 '
1(
1+
03
#853000
1-
b1 #
b1 .
b1 B
b10 %
b10 0
b10 D
b110 &
b110 1
b110 E
b10000000100000000100000001 L
07
05
b110000000100000001000000001 J
b110000000100000001000000001 F
b110000000100000001000000001 K
#875000
0)
0!
#900000
1)
1!
#901000
0M
b10 *
b10 ?
b10 @
0-
b10010 '
0(
0+
13
#903000
1M
b1 *
b1 ?
b1 @
1-
17
15
#906000
b10000000100000000100000001 G
b10000000100000000100000001 N
b10000000100000000100000001 O
#909000
b10000000100000000100000001 H
b10000000100000000100000001 I
b10000000100000000100000001 R
#925000
0)
0!
#950000
1)
1!
#951000
0M
b10 *
b10 ?
b10 @
0-
b10011 '
1(
1+
03
#953000
1-
b1 $
b1 /
b1 C
b10 &
b10 1
b10 E
b10000000010000000100000001 L
07
05
b10000000100000000100000001 J
b10000000100000000100000001 F
b10000000100000000100000001 K
#975000
0)
0!
#1000000
1)
1!
#1001000
b10100 '
#1003000
0-
17
15
#1006000
b10 4
b10 8
b10 ;
b10 >
#1025000
0)
0!
#1050000
1)
1!
#1051000
1M
b1 *
b1 ?
b1 @
1-
b10101 '
0(
0+
13
#1053000
b11 <
b10 9
b10000000010000000100000010 L
b10 2
b10 6
b10 :
b10 A
#1054000
b1 4
b1 8
b1 ;
b1 >
#1056000
b10000000010000000100000010 G
b10000000010000000100000010 N
b10000000010000000100000010 O
#1059000
b10000000010000000100000010 H
b10000000010000000100000010 I
b10000000010000000100000010 R
#1075000
0)
0!
#1100000
1)
1!
#1101000
0M
b10 *
b10 ?
b10 @
0-
b10110 '
1(
1+
03
#1103000
b10 #
b10 .
b10 B
b1 %
b1 0
b1 D
b10 <
1-
b10000000010000000100000010 J
b10000000010000000100000010 F
b10000000010000000100000010 K
b1 9
b1000000010000001000000001 L
b1 2
b1 6
b1 :
b1 A
07
05
#1125000
0)
0!
#1150000
1)
1!
#1151000
0M
b10 *
b10 ?
b10 @
0-
b10111 '
0(
0+
13
#1153000
1M
b1 *
b1 ?
b1 @
1-
17
15
#1156000
b1000000010000001000000001 G
b1000000010000001000000001 N
b1000000010000001000000001 O
#1159000
b1000000010000001000000001 H
b1000000010000001000000001 I
b1000000010000001000000001 R
#1175000
0)
0!
#1200000
1)
1!
#1201000
b11000 '
#1203000
0M
b10 *
b10 ?
b10 @
b1 #
b1 .
b1 B
b10 $
b10 /
b10 C
b1 &
b1 1
b1 E
b1000000100000000100000001 L
0-
b1000000010000001000000001 J
b1000000010000001000000001 F
b1000000010000001000000001 K
07
05
#1206000
b10 4
b10 8
b10 ;
b10 >
#1225000
0)
0!
#1250000
1)
1!
#1251000
b11001 '
#1253000
b11 <
b10 9
b1000000100000000100000010 L
b10 2
b10 6
b10 :
b10 A
#1256000
b11 4
b11 8
b11 ;
b11 >
#1275000
0)
0!
#1300000
1)
1!
#1301000
1-
b11010 '
1(
1+
03
#1303000
1Q
b0 *
b0 ?
b0 @
1"
b100 <
1,
b11 9
b1000000100000000100000011 L
b11 2
b11 6
b11 :
b11 A
#1304000
b1 4
b1 8
b1 ;
b1 >
#1306000
b0 H
b0 I
b0 R
#1325000
0)
0!
#1350000
1)
1!
#1351000
0"
0M
0Q
b10 *
b10 ?
b10 @
0-
b11011 '
0(
0+
13
#1353000
1M
b1 *
b1 ?
b1 @
1-
b10 <
0,
b0 #
b0 .
b0 B
b0 $
b0 /
b0 C
b0 %
b0 0
b0 D
b0 &
b0 1
b0 E
17
15
b1 9
b1 L
b1 2
b1 6
b1 :
b1 A
b0 J
b0 F
b0 K
#1354000
b1000000010000001000000001 H
b1000000010000001000000001 I
b1000000010000001000000001 R
#1356000
b1 G
b1 N
b1 O
#1359000
b1 H
b1 I
b1 R
#1375000
0)
0!
#1400000
1)
1!
#1401000
0M
b10 *
b10 ?
b10 @
0-
b11100 '
1(
1+
03
#1403000
b1 #
b1 .
b1 B
b100000001 L
1-
b1 J
b1 F
b1 K
07
05
#1425000
0)
0!
#1450000
1)
1!
#1451000
b11101 '
#1453000
0-
17
15
#1456000
b10 4
b10 8
b10 ;
b10 >
#1475000
0)
0!
#1500000
1)
1!
#1501000
b11110 '
#1503000
b11 <
b10 9
b100000010 L
b10 2
b10 6
b10 :
b10 A
#1506000
b11 4
b11 8
b11 ;
b11 >
#1525000
0)
0!
#1550000
1)
1!
#1551000
b11111 '
#1553000
b100 <
1,
b11 9
b100000011 L
b11 2
b11 6
b11 :
b11 A
#1556000
b100 4
b100 8
b100 ;
b100 >
#1575000
0)
0!
#1600000
1)
1!
#1601000
1M
b1 *
b1 ?
b1 @
1-
b100000 '
0(
0+
13
#1603000
b101 <
b100 9
b100000100 L
b100 2
b100 6
b100 :
b100 A
#1604000
b1 4
b1 8
b1 ;
b1 >
#1606000
b100000100 G
b100000100 N
b100000100 O
#1609000
b100000100 H
b100000100 I
b100000100 R
#1625000
0)
0!
#1650000
1)
1!
#1651000
b100001 '
#1653000
0M
b10 *
b10 ?
b10 @
0-
b10 <
0,
b100 #
b100 .
b100 B
b1 $
b1 /
b1 C
07
05
b1 9
b10000010000000001 L
b1 2
b1 6
b1 :
b1 A
b100000100 J
b100000100 F
b100000100 K
#1656000
b10 4
b10 8
b10 ;
b10 >
#1675000
0)
0!
#1700000
1)
1!
#1701000
b100010 '
#1703000
b11 <
b10 9
b10000010000000010 L
b10 2
b10 6
b10 :
b10 A
#1706000
b11 4
b11 8
b11 ;
b11 >
#1725000
0)
0!
#1750000
1)
1!
#1751000
b100011 '
#1753000
b100 <
1,
b11 9
b10000010000000011 L
b11 2
b11 6
b11 :
b11 A
#1756000
b100 4
b100 8
b100 ;
b100 >
#1775000
0)
0!
#1800000
1)
1!
#1801000
1Q
b0 *
b0 ?
b0 @
1"
1-
b100100 '
1(
1+
03
#1803000
b101 <
b100 9
b10000010000000100 L
b100 2
b100 6
b100 :
b100 A
#1804000
b0 H
b0 I
b0 R
b1 4
b1 8
b1 ;
b1 >
#1825000
0)
0!
#1850000
1)
1!
#1851000
0"
0M
0Q
b10 *
b10 ?
b10 @
0-
b100101 '
0(
0+
13
#1853000
1M
b1 *
b1 ?
b1 @
1-
b10 <
0,
b0 #
b0 .
b0 B
b0 $
b0 /
b0 C
17
15
b1 9
b1 L
b1 2
b1 6
b1 :
b1 A
b0 J
b0 F
b0 K
#1854000
b100000100 H
b100000100 I
b100000100 R
#1856000
b1 G
b1 N
b1 O
#1859000
b1 H
b1 I
b1 R
#1875000
0)
0!
#1900000
1)
1!
#1901000
0M
b10 *
b10 ?
b10 @
0-
b100110 '
1(
1+
03
#1903000
b1 #
b1 .
b1 B
b100000001 L
1-
b1 J
b1 F
b1 K
07
05
#1925000
0)
0!
#1950000
1)
1!
#1951000
b100111 '
#1953000
0-
17
15
#1956000
b10 4
b10 8
b10 ;
b10 >
#1975000
0)
0!
#2000000
1)
1!
#2001000
b101000 '
#2003000
b11 <
b10 9
b100000010 L
b10 2
b10 6
b10 :
b10 A
#2006000
b11 4
b11 8
b11 ;
b11 >
#2025000
0)
0!
#2050000
1)
1!
#2051000
b101001 '
#2053000
b100 <
1,
b11 9
b100000011 L
b11 2
b11 6
b11 :
b11 A
#2056000
b100 4
b100 8
b100 ;
b100 >
#2075000
0)
0!
#2100000
1)
1!
#2101000
b101010 '
#2103000
b101 <
b100 9
b100000100 L
b100 2
b100 6
b100 :
b100 A
#2106000
b101 4
b101 8
b101 ;
b101 >
#2125000
0)
0!
#2150000
1)
1!
#2151000
1M
b1 *
b1 ?
b1 @
1-
b101011 '
0(
0+
13
#2153000
b110 <
b101 9
b100000101 L
b101 2
b101 6
b101 :
b101 A
#2154000
b1 4
b1 8
b1 ;
b1 >
#2156000
b100000101 G
b100000101 N
b100000101 O
#2159000
b100000101 H
b100000101 I
b100000101 R
#2175000
0)
0!
#2200000
1)
1!
#2201000
b101100 '
#2203000
0M
b10 *
b10 ?
b10 @
b101 #
b101 .
b101 B
b1 $
b1 /
b1 C
b10 <
0,
0-
b100000101 J
b100000101 F
b100000101 K
b1 9
b10000010100000001 L
b1 2
b1 6
b1 :
b1 A
07
05
#2206000
b10 4
b10 8
b10 ;
b10 >
#2225000
0)
0!
#2250000
1)
1!
#2251000
1-
b101101 '
1(
1+
03
#2253000
b11 <
b10 9
b10000010100000010 L
b10 2
b10 6
b10 :
b10 A
#2254000
b1 4
b1 8
b1 ;
b1 >
#2275000
0)
0!
#2300000
1)
1!
#2301000
b101110 '
#2303000
b10 <
0-
b1 9
b10000010100000001 L
b1 2
b1 6
b1 :
b1 A
17
15
#2306000
b10 4
b10 8
b10 ;
b10 >
#2325000
0)
0!
#2350000
1)
1!
#2351000
b101111 '
#2353000
b11 <
b10 9
b10000010100000010 L
b10 2
b10 6
b10 :
b10 A
#2356000
b11 4
b11 8
b11 ;
b11 >
#2375000
0)
0!
#2400000
1)
1!
#2401000
1M
b1 *
b1 ?
b1 @
1-
b110000 '
0(
0+
13
#2403000
b100 <
1,
b11 9
b10000010100000011 L
b11 2
b11 6
b11 :
b11 A
#2404000
b1 4
b1 8
b1 ;
b1 >
#2406000
b10000010100000011 G
b10000010100000011 N
b10000010100000011 O
#2409000
b10000010100000011 H
b10000010100000011 I
b10000010100000011 R
#2425000
0)
0!
#2450000
1)
1!
#2451000
b110001 '
#2453000
0M
b10 *
b10 ?
b10 @
0-
b10 <
0,
b11 #
b11 .
b11 B
b101 $
b101 /
b101 C
b1 %
b1 0
b1 D
07
05
b1 9
b1000001010000001100000001 L
b1 2
b1 6
b1 :
b1 A
b10000010100000011 J
b10000010100000011 F
b10000010100000011 K
#2456000
b10 4
b10 8
b10 ;
b10 >
#2475000
0)
0!
#2500000
1)
1!
#2501000
b110010 '
#2503000
b11 <
b10 9
b1000001010000001100000010 L
b10 2
b10 6
b10 :
b10 A
#2506000
b11 4
b11 8
b11 ;
b11 >
#2525000
0)
0!
#2550000
1)
1!
#2551000
b110011 '
#2553000
b100 <
1,
b11 9
b1000001010000001100000011 L
b11 2
b11 6
b11 :
b11 A
#2556000
b100 4
b100 8
b100 ;
b100 >
#2575000
0)
0!
#2600000
1)
1!
#2601000
b110100 '
#2603000
b101 <
b100 9
b1000001010000001100000100 L
b100 2
b100 6
b100 :
b100 A
#2606000
b101 4
b101 8
b101 ;
b101 >
#2625000
0)
0!
#2650000
1)
1!
#2651000
1Q
b0 *
b0 ?
b0 @
1"
1-
b110101 '
1(
1+
03
#2653000
b110 <
b101 9
b1000001010000001100000101 L
b101 2
b101 6
b101 :
b101 A
#2654000
b0 H
b0 I
b0 R
b1 4
b1 8
b1 ;
b1 >
#2675000
0)
0!
#2700000
1)
1!
#2701000
0"
0M
0Q
b10 *
b10 ?
b10 @
0-
b110110 '
0(
0+
13
#2703000
1M
b1 *
b1 ?
b1 @
b0 #
b0 .
b0 B
b0 $
b0 /
b0 C
b0 %
b0 0
b0 D
b10 <
0,
1-
b0 J
b0 F
b0 K
b1 9
b1 L
b1 2
b1 6
b1 :
b1 A
17
15
#2704000
b10000010100000011 H
b10000010100000011 I
b10000010100000011 R
#2706000
b1 G
b1 N
b1 O
#2709000
b1 H
b1 I
b1 R
#2725000
0)
0!
#2750000
1)
1!
#2751000
b110111 '
#2753000
0M
b10 *
b10 ?
b10 @
0-
b1 #
b1 .
b1 B
b100000001 L
07
05
b1 J
b1 F
b1 K
#2756000
b10 4
b10 8
b10 ;
b10 >
#2775000
0)
0!
#2800000
1)
1!
#2801000
1-
b111000 '
1(
1+
03
#2803000
b11 <
b10 9
b100000010 L
b10 2
b10 6
b10 :
b10 A
#2804000
b1 4
b1 8
b1 ;
b1 >
#2825000
0)
0!
#2850000
1)
1!
#2851000
b111001 '
#2853000
0-
b10 <
17
15
b1 9
b100000001 L
b1 2
b1 6
b1 :
b1 A
#2856000
b10 4
b10 8
b10 ;
b10 >
#2875000
0)
0!
#2900000
1)
1!
#2901000
1M
b1 *
b1 ?
b1 @
1-
b111010 '
0(
0+
13
#2903000
b11 <
b10 9
b100000010 L
b10 2
b10 6
b10 :
b10 A
#2904000
b1 4
b1 8
b1 ;
b1 >
#2906000
b100000010 G
b100000010 N
b100000010 O
#2909000
b100000010 H
b100000010 I
b100000010 R
#2925000
0)
0!
#2950000
1)
1!
#2951000
b111011 '
#2953000
0M
b10 *
b10 ?
b10 @
0-
b10 <
b10 #
b10 .
b10 B
b1 $
b1 /
b1 C
07
05
b1 9
b10000001000000001 L
b1 2
b1 6
b1 :
b1 A
b100000010 J
b100000010 F
b100000010 K
#2956000
b10 4
b10 8
b10 ;
b10 >
#2975000
0)
0!
#3000000
1)
1!
#3001000
b111100 '
#3003000
b11 <
b10 9
b10000001000000010 L
b10 2
b10 6
b10 :
b10 A
#3006000
b11 4
b11 8
b11 ;
b11 >
#3025000
0)
0!
#3050000
1)
1!
#3051000
b111101 '
#3053000
b100 <
1,
b11 9
b10000001000000011 L
b11 2
b11 6
b11 :
b11 A
#3056000
b100 4
b100 8
b100 ;
b100 >
#3075000
0)
0!
#3100000
1)
1!
#3101000
b111110 '
#3103000
b101 <
b100 9
b10000001000000100 L
b100 2
b100 6
b100 :
b100 A
#3106000
b101 4
b101 8
b101 ;
b101 >
#3125000
0)
0!
#3150000
1)
1!
#3151000
1Q
b0 *
b0 ?
b0 @
1"
1-
b111111 '
1(
1+
03
#3153000
b110 <
b101 9
b10000001000000101 L
b101 2
b101 6
b101 :
b101 A
#3154000
b0 H
b0 I
b0 R
b1 4
b1 8
b1 ;
b1 >
#3175000
0)
0!
#3200000
1)
1!
#3201000
b1000000 '
#3203000
0Q
b10 *
b10 ?
b10 @
0"
b0 #
b0 .
b0 B
b0 $
b0 /
b0 C
b10 <
0,
0-
b0 J
b0 F
b0 K
b1 9
b1 L
b1 2
b1 6
b1 :
b1 A
17
15
#3206000
b100000010 H
b100000010 I
b100000010 R
b10 4
b10 8
b10 ;
b10 >
b0 G
b0 N
b0 O
#3209000
b0 H
b0 I
b0 R
#3225000
0)
0!
#3250000
1)
1!
#3251000
b1000001 '
#3253000
b11 <
b10 9
b10 L
b10 2
b10 6
b10 :
b10 A
#3256000
b11 4
b11 8
b11 ;
b11 >
#3275000
0)
0!
#3300000
1)
1!
#3301000
b1000010 '
#3303000
b100 <
1,
b11 9
b11 L
b11 2
b11 6
b11 :
b11 A
#3306000
b100 4
b100 8
b100 ;
b100 >
#3325000
0)
0!
#3350000
1)
1!
#3351000
b1000011 '
#3353000
b101 <
b100 9
b100 L
b100 2
b100 6
b100 :
b100 A
#3356000
b101 4
b101 8
b101 ;
b101 >
#3375000
0)
0!
#3400000
1)
1!
#3401000
1M
b1 *
b1 ?
b1 @
1-
b1000100 '
0(
0+
13
#3403000
b110 <
b101 9
b101 L
b101 2
b101 6
b101 :
b101 A
#3404000
b1 4
b1 8
b1 ;
b1 >
#3406000
b101 G
b101 N
b101 O
#3409000
b101 H
b101 I
b101 R
#3425000
0)
0!
#3450000
1)
1!
#3451000
b1000101 '
#3453000
0M
b10 *
b10 ?
b10 @
0-
b10 <
0,
b101 #
b101 .
b101 B
07
05
b1 9
b10100000001 L
b1 2
b1 6
b1 :
b1 A
b101 J
b101 F
b101 K
#3456000
b10 4
b10 8
b10 ;
b10 >
#3475000
0)
0!
#3500000
1)
1!
#3501000
1-
b1000110 '
1(
1+
03
#3503000
b11 <
b10 9
b10100000010 L
b10 2
b10 6
b10 :
b10 A
#3504000
b1 4
b1 8
b1 ;
b1 >
#3525000
0)
0!
#3550000
1)
1!
#3551000
b1000111 '
#3553000
0-
b10 <
17
15
b1 9
b10100000001 L
b1 2
b1 6
b1 :
b1 A
#3556000
b10 4
b10 8
b10 ;
b10 >
#3575000
0)
0!
#3600000
1)
1!
#3601000
b1001000 '
#3603000
b11 <
b10 9
b10100000010 L
b10 2
b10 6
b10 :
b10 A
#3606000
b11 4
b11 8
b11 ;
b11 >
#3625000
0)
0!
#3650000
1)
1!
#3651000
1M
b1 *
b1 ?
b1 @
1-
b1001001 '
0(
0+
13
#3653000
b100 <
1,
b11 9
b10100000011 L
b11 2
b11 6
b11 :
b11 A
#3654000
b1 4
b1 8
b1 ;
b1 >
#3656000
b10100000011 G
b10100000011 N
b10100000011 O
#3659000
b10100000011 H
b10100000011 I
b10100000011 R
#3675000
0)
0!
#3700000
1)
1!
#3701000
b1001010 '
#3703000
0M
b10 *
b10 ?
b10 @
b11 #
b11 .
b11 B
b101 $
b101 /
b101 C
b10 <
0,
0-
b10100000011 J
b10100000011 F
b10100000011 K
b1 9
b1010000001100000001 L
b1 2
b1 6
b1 :
b1 A
07
05
#3706000
b10 4
b10 8
b10 ;
b10 >
#3725000
0)
0!
#3750000
1)
1!
#3751000
1-
b1001011 '
1(
1+
03
#3753000
b11 <
b10 9
b1010000001100000010 L
b10 2
b10 6
b10 :
b10 A
#3754000
b1 4
b1 8
b1 ;
b1 >
#3775000
0)
0!
#3800000
1)
1!
#3801000
b1001100 '
#3803000
b10 <
0-
b1 9
b1010000001100000001 L
b1 2
b1 6
b1 :
b1 A
17
15
#3806000
b10 4
b10 8
b10 ;
b10 >
#3825000
0)
0!
#3850000
1)
1!
#3851000
1M
b1 *
b1 ?
b1 @
1-
b1001101 '
0(
0+
13
#3853000
b11 <
b10 9
b1010000001100000010 L
b10 2
b10 6
b10 :
b10 A
#3854000
b1 4
b1 8
b1 ;
b1 >
#3856000
b1010000001100000010 G
b1010000001100000010 N
b1010000001100000010 O
#3859000
b1010000001100000010 H
b1010000001100000010 I
b1010000001100000010 R
#3875000
0)
0!
#3900000
1)
1!
#3901000
0M
b10 *
b10 ?
b10 @
0-
b1001110 '
1(
1+
03
#3903000
b10 #
b10 .
b10 B
b11 $
b11 /
b11 C
b101 %
b101 0
b101 D
b10 <
1-
b1010000001100000010 J
b1010000001100000010 F
b1010000001100000010 K
b1 9
b101000000110000001000000001 L
b1 2
b1 6
b1 :
b1 A
07
05
#3925000
0)
0!
#3950000
1)
1!
#3951000
b1001111 '
#3953000
0-
17
15
#3956000
b10 4
b10 8
b10 ;
b10 >
#3975000
0)
0!
#4000000
1)
1!
#4001000
1M
b1 *
b1 ?
b1 @
1-
b1010000 '
0(
0+
13
#4003000
b11 <
b10 9
b101000000110000001000000010 L
b10 2
b10 6
b10 :
b10 A
#4004000
b1 4
b1 8
b1 ;
b1 >
#4006000
b101000000110000001000000010 G
b101000000110000001000000010 N
b101000000110000001000000010 O
#4009000
b101000000110000001000000010 H
b101000000110000001000000010 I
b101000000110000001000000010 R
#4025000
0)
0!
#4050000
1)
1!
#4051000
0M
b10 *
b10 ?
b10 @
0-
b1010001 '
1(
1+
03
#4053000
1-
b10 <
b10 $
b10 /
b10 C
b11 %
b11 0
b11 D
b101 &
b101 1
b101 E
07
05
b1 9
b11000000100000001000000001 L
b1 2
b1 6
b1 :
b1 A
b101000000110000001000000010 J
b101000000110000001000000010 F
b101000000110000001000000010 K
#4075000
0)
0!
#4100000
1)
1!
#4101000
b1010010 '
#4103000
0-
17
15
#4106000
b10 4
b10 8
b10 ;
b10 >
#4125000
0)
0!
#4150000
1)
1!
#4151000
b1010011 '
#4153000
b11 <
b10 9
b11000000100000001000000010 L
b10 2
b10 6
b10 :
b10 A
#4156000
b11 4
b11 8
b11 ;
b11 >
#4175000
0)
0!
#4200000
1)
1!
#4201000
1M
b1 *
b1 ?
b1 @
1-
b1010100 '
0(
0+
13
#4203000
b100 <
1,
b11 9
b11000000100000001000000011 L
b11 2
b11 6
b11 :
b11 A
#4204000
b1 4
b1 8
b1 ;
b1 >
#4206000
b11000000100000001000000011 G
b11000000100000001000000011 N
b11000000100000001000000011 O
#4209000
b11000000100000001000000011 H
b11000000100000001000000011 I
b11000000100000001000000011 R
#4225000
0)
0!
#4250000
1)
1!
#4251000
0"
0M
0Q
b10 *
b10 ?
b10 @
0-
b1010101 '
1(
1+
03
#4253000
1-
b10 <
0,
b11 #
b11 .
b11 B
b10 %
b10 0
b10 D
b11 &
b11 1
b11 E
07
05
b1 9
b10000000100000001100000001 L
b1 2
b1 6
b1 :
b1 A
b11000000100000001000000011 J
b11000000100000001000000011 F
b11000000100000001000000011 K
#4275000
0)
0!
#4300000
1)
1!
#4301000
b1010110 '
#4303000
0-
17
15
#4306000
b10 4
b10 8
b10 ;
b10 >
#4325000
0)
0!
#4350000
1)
1!
#4351000
1M
b1 *
b1 ?
b1 @
1-
b1010111 '
0(
0+
13
#4353000
b11 <
b10 9
b10000000100000001100000010 L
b10 2
b10 6
b10 :
b10 A
#4354000
b1 4
b1 8
b1 ;
b1 >
#4356000
b10000000100000001100000010 G
b10000000100000001100000010 N
b10000000100000001100000010 O
#4359000
b10000000100000001100000010 H
b10000000100000001100000010 I
b10000000100000001100000010 R
#4375000
0)
0!
#4400000
1)
1!
#4401000
b1011000 '
#4403000
0M
b10 *
b10 ?
b10 @
b10 #
b10 .
b10 B
b11 $
b11 /
b11 C
b10 &
b10 1
b10 E
b10 <
0-
b10000000100000001100000010 J
b10000000100000001100000010 F
b10000000100000001100000010 K
b1 9
b10000000110000001000000001 L
b1 2
b1 6
b1 :
b1 A
07
05
#4406000
b10 4
b10 8
b10 ;
b10 >
#4425000
0)
0!
#4450000
1)
1!
#4451000
b1011001 '
#4453000
b11 <
b10 9
b10000000110000001000000010 L
b10 2
b10 6
b10 :
b10 A
#4456000
b11 4
b11 8
b11 ;
b11 >
#4475000
0)
0!
#4500000
1)
1!
#4501000
b1011010 '
#4503000
b100 <
1,
b11 9
b10000000110000001000000011 L
b11 2
b11 6
b11 :
b11 A
#4506000
b100 4
b100 8
b100 ;
b100 >
#4525000
0)
0!
#4550000
1)
1!
#4551000
1Q
b0 *
b0 ?
b0 @
1"
1-
b1011011 '
1(
1+
03
#4553000
b101 <
b100 9
b10000000110000001000000100 L
b100 2
b100 6
b100 :
b100 A
#4554000
b0 H
b0 I
b0 R
b1 4
b1 8
b1 ;
b1 >
#4575000
0)
0!
#4600000
1)
1!
#4601000
b1011100 '
