Old/eem16/lab2/timing2_1.vcd
$date
	Wed Nov 22 08:42:06 2017
$end
$version
	Icarus Verilog
$end
$timescale
	1ps
$end
$scope module dassign2_1_tb $end
$var wire 1 ! clk $end
$var wire 16 " prod [15:0] $end
$var wire 1 # ready $end
$var reg 8 $ a [7:0] $end
$var reg 8 % b [7:0] $end
$var reg 16 & correct [15:0] $end
$var integer 32 ' i [31:0] $end
$var integer 32 ( mult_err [31:0] $end
$var reg 1 ) reset $end
$scope module clock_gen $end
$var reg 1 * clk $end
$upscope $end
$scope module multiply $end
$var wire 16 + a_reg [15:0] $end
$var wire 16 , a_reg_temp [15:0] $end
$var wire 16 - a_reg_temp2 [15:0] $end
$var wire 16 . accumulator_reg_temp [15:0] $end
$var wire 16 / accumulator_reg_temp2 [15:0] $end
$var wire 8 0 ain [7:0] $end
$var wire 8 1 b_reg [7:0] $end
$var wire 8 2 b_reg_temp [7:0] $end
$var wire 8 3 b_reg_temp2 [7:0] $end
$var wire 8 4 bin [7:0] $end
$var wire 1 ! clk $end
$var wire 16 5 pp [15:0] $end
$var wire 16 6 prod [15:0] $end
$var wire 1 # ready $end
$var wire 1 7 reset $end
$scope module mux2_1 $end
$var wire 16 8 a [15:0] $end
$var wire 16 9 b [15:0] $end
$var wire 1 7 sel $end
$var wire 16 : y [15:0] $end
$upscope $end
$scope module mux2_2 $end
$var wire 16 ; a [15:0] $end
$var wire 16 < b [15:0] $end
$var wire 1 7 sel $end
$var wire 16 = y [15:0] $end
$upscope $end
$scope module mux2_3 $end
$var wire 8 > a [7:0] $end
$var wire 8 ? b [7:0] $end
$var wire 1 7 sel $end
$var wire 8 @ y [7:0] $end
$upscope $end
$scope module b_dreg $end
$var wire 1 ! clk $end
$var wire 8 A d [7:0] $end
$var reg 8 B q [7:0] $end
$upscope $end
$scope module a_dreg $end
$var wire 1 ! clk $end
$var wire 16 C d [15:0] $end
$var reg 16 D q [15:0] $end
$upscope $end
$scope module acc_dreg $end
$var wire 1 ! clk $end
$var wire 16 E d [15:0] $end
$var reg 16 F q [15:0] $end
$upscope $end
$scope module partial_product_1 $end
$var wire 16 G a [15:0] $end
$var wire 16 H b [15:0] $end
$var wire 16 I pp [15:0] $end
$upscope $end
$scope module add_1 $end
$var wire 16 J a [15:0] $end
$var wire 16 K b [15:0] $end
$var wire 16 L sum [15:0] $end
$upscope $end
$scope module is_done_1 $end
$var wire 8 M a [7:0] $end
$var wire 8 N b [7:0] $end
$var wire 1 # done $end
$upscope $end
$scope module shl_1 $end
$var wire 16 O a [15:0] $end
$var wire 16 P y [15:0] $end
$upscope $end
$scope module shr_1 $end
$var wire 8 Q a [7:0] $end
$var wire 8 R y [7:0] $end
$upscope $end
$upscope $end
$upscope $end
$enddefinitions $end
#0
$dumpvars
b0xxxxxxx R
bx Q
bx0 P
bx O
bx N
bx M
bx L
bx K
bx J
bx I
b0xxxxxxxx H
bx G
bx F
bx E
bx D
bx C
bx B
bx A
bx @
bx ?
b0xxxxxxx >
bx =
b0xxxxxxxx <
bx0 ;
bx :
b0 9
bx 8
x7
bx 6
bx 5
bx 4
bx 3
b0xxxxxxx 2
bx 1
bx 0
bx /
bx .
bx -
bx0 ,
bx +
0*
x)
b0 (
b0 '
bx &
bx %
bx $
x#
bx "
0!
$end
#31000
b1001000100100 &
1)
17
b10000001 %
b10000001 4
b10000001 ?
b100100 $
b100100 0
b100100 <
1*
1!
#34000
b0 /
b0 :
b0 E
b10000001 3
b10000001 @
b10000001 A
b100100 -
b100100 =
b100100 C
#62000
0*
0!
#93000
0)
07
b0 %
b0 4
b0 ?
b0 $
b0 0
b0 <
1*
1!
#96000
b1001000 ,
b1001000 ;
b1001000 P
b100100 M
b1000000 2
b1000000 >
b1000000 R
b0 F
b0 "
b0 6
b0 K
b100100 D
b100100 +
b100100 G
b100100 O
b10000001 B
b10000001 H
b10000001 1
b10000001 N
b10000001 Q
bx /
bx :
bx E
b0xxxxxxx 3
b0xxxxxxx @
b0xxxxxxx A
bx0 -
bx0 =
bx0 C
#97000
b100100 5
b100100 I
b100100 J
#99000
b1001000 -
b1001000 =
b1001000 C
b1000000 3
b1000000 @
b1000000 A
#100000
0#
#124000
0*
0!
#145000
b100100 .
b100100 8
b100100 L
#148000
b100100 /
b100100 :
b100100 E
#155000
1*
1!
#158000
b100000 2
b100000 >
b100000 R
b10010000 ,
b10010000 ;
b10010000 P
b1001000 M
b1000000 B
b1000000 H
b1000000 1
b1000000 N
b1000000 Q
b1001000 D
b1001000 +
b1001000 G
b1001000 O
b100100 F
b100100 "
b100100 6
b100100 K
#159000
b0 5
b0 I
b0 J
#161000
b100000 3
b100000 @
b100000 A
b10010000 -
b10010000 =
b10010000 C
#186000
0*
0!
#217000
1*
1!
#220000
b100100000 ,
b100100000 ;
b100100000 P
b10010000 M
b10000 2
b10000 >
b10000 R
b10010000 D
b10010000 +
b10010000 G
b10010000 O
b100000 B
b100000 H
b100000 1
b100000 N
b100000 Q
#223000
b100100000 -
b100100000 =
b100100000 C
b10000 3
b10000 @
b10000 A
#248000
0*
0!
#279000
1*
1!
#282000
b1000 2
b1000 >
b1000 R
b1001000000 ,
b1001000000 ;
b1001000000 P
b100000 M
b10000 B
b10000 H
b10000 1
b10000 N
b10000 Q
b100100000 D
b100100000 +
b100100000 G
b100100000 O
#285000
b1000 3
b1000 @
b1000 A
b1001000000 -
b1001000000 =
b1001000000 C
#310000
0*
0!
#341000
1*
1!
#344000
b10010000000 ,
b10010000000 ;
b10010000000 P
b1000000 M
b100 2
b100 >
b100 R
b1001000000 D
b1001000000 +
b1001000000 G
b1001000000 O
b1000 B
b1000 H
b1000 1
b1000 N
b1000 Q
#347000
b10010000000 -
b10010000000 =
b10010000000 C
b100 3
b100 @
b100 A
#372000
0*
0!
#403000
1*
1!
#406000
b10 2
b10 >
b10 R
b100100000000 ,
b100100000000 ;
b100100000000 P
b10000000 M
b100 B
b100 H
b100 1
b100 N
b100 Q
b10010000000 D
b10010000000 +
b10010000000 G
b10010000000 O
#409000
b10 3
b10 @
b10 A
b100100000000 -
b100100000000 =
b100100000000 C
#434000
0*
0!
#465000
1*
1!
#468000
b1001000000000 ,
b1001000000000 ;
b1001000000000 P
b0 M
b1 2
b1 >
b1 R
b100100000000 D
b100100000000 +
b100100000000 G
b100100000000 O
b10 B
b10 H
b10 1
b10 N
b10 Q
#471000
b1001000000000 -
b1001000000000 =
b1001000000000 C
b1 3
b1 @
b1 A
#496000
0*
0!
#527000
1*
1!
#530000
b0 2
b0 >
b0 R
b10010000000000 ,
b10010000000000 ;
b10010000000000 P
b1 B
b1 H
b1 1
b1 N
b1 Q
b1001000000000 D
b1001000000000 +
b1001000000000 G
b1001000000000 O
#531000
b1001000000000 5
b1001000000000 I
b1001000000000 J
#533000
b0 3
b0 @
b0 A
b10010000000000 -
b10010000000000 =
b10010000000000 C
#558000
0*
0!
#579000
b1001000100100 .
b1001000100100 8
b1001000100100 L
#582000
b1001000100100 /
b1001000100100 :
b1001000100100 E
#589000
1*
1!
#592000
b100100000000000 ,
b100100000000000 ;
b100100000000000 P
b1001000100100 F
b1001000100100 "
b1001000100100 6
b1001000100100 K
b10010000000000 D
b10010000000000 +
b10010000000000 G
b10010000000000 O
b0 B
b0 H
b0 1
b0 N
b0 Q
#593000
b0 5
b0 I
b0 J
#595000
b100100000000000 -
b100100000000000 =
b100100000000000 C
#596000
1#
#620000
0*
0!
#651000
b1 '
1*
1!
#654000
b1001000000000000 ,
b1001000000000000 ;
b1001000000000000 P
b100100000000000 D
b100100000000000 +
b100100000000000 G
b100100000000000 O
#657000
b1001000000000000 -
b1001000000000000 =
b1001000000000000 C
#682000
0*
0!
#713000
b1101111011 &
1)
17
b1100011 %
b1100011 4
b1100011 ?
b1001 $
b1001 0
b1001 <
1*
1!
#716000
b10000000000000 ,
b10000000000000 ;
b10000000000000 P
b1001000000000000 D
b1001000000000000 +
b1001000000000000 G
b1001000000000000 O
b0 /
b0 :
b0 E
b1001 -
b1001 =
b1001 C
b1100011 3
b1100011 @
b1100011 A
#744000
0*
0!
#775000
0)
07
b0 %
b0 4
b0 ?
b0 $
b0 0
b0 <
1*
1!
#778000
b110001 2
b110001 >
b110001 R
b10010 ,
b10010 ;
b10010 P
b1001 M
b1100011 B
b1100011 H
b1100011 1
b1100011 N
b1100011 Q
b1001 D
b1001 +
b1001 G
b1001 O
b0 F
b0 "
b0 6
b0 K
b1001000100100 /
b1001000100100 :
b1001000100100 E
b0 3
b0 @
b0 A
b10000000000000 -
b10000000000000 =
b10000000000000 C
#779000
b1001 5
b1001 I
b1001 J
#781000
b110001 3
b110001 @
b110001 A
b10010 -
b10010 =
b10010 C
#782000
0#
#806000
0*
0!
#827000
b1001 .
b1001 8
b1001 L
#830000
b1001 /
b1001 :
b1001 E
#837000
1*
1!
#840000
b100100 ,
b100100 ;
b100100 P
b10010 M
b11000 2
b11000 >
b11000 R
b1001 F
b1001 "
b1001 6
b1001 K
b10010 D
b10010 +
b10010 G
b10010 O
b110001 B
b110001 H
b110001 1
b110001 N
b110001 Q
#841000
b10010 5
b10010 I
b10010 J
#843000
b100100 -
b100100 =
b100100 C
b11000 3
b11000 @
b11000 A
#868000
0*
0!
#889000
b11011 .
b11011 8
b11011 L
#892000
b11011 /
b11011 :
b11011 E
#899000
1*
1!
#902000
b1100 2
b1100 >
b1100 R
b1001000 ,
b1001000 ;
b1001000 P
b100100 M
b11000 B
b11000 H
b11000 1
b11000 N
b11000 Q
b100100 D
b100100 +
b100100 G
b100100 O
b11011 F
b11011 "
b11011 6
b11011 K
#903000
b0 5
b0 I
b0 J
#905000
b1100 3
b1100 @
b1100 A
b1001000 -
b1001000 =
b1001000 C
#930000
0*
0!
#961000
1*
1!
#964000
b10010000 ,
b10010000 ;
b10010000 P
b1001000 M
b110 2
b110 >
b110 R
b1001000 D
b1001000 +
b1001000 G
b1001000 O
b1100 B
b1100 H
b1100 1
b1100 N
b1100 Q
#967000
b10010000 -
b10010000 =
b10010000 C
b110 3
b110 @
b110 A
#992000
0*
0!
#1023000
1*
1!
#1026000
b11 2
b11 >
b11 R
b100100000 ,
b100100000 ;
b100100000 P
b10010000 M
b110 B
b110 H
b110 1
b110 N
b110 Q
b10010000 D
b10010000 +
b10010000 G
b10010000 O
#1029000
b11 3
b11 @
b11 A
b100100000 -
b100100000 =
b100100000 C
#1054000
0*
0!
#1085000
1*
1!
#1088000
b1001000000 ,
b1001000000 ;
b1001000000 P
b100000 M
b1 2
b1 >
b1 R
b100100000 D
b100100000 +
b100100000 G
b100100000 O
b11 B
b11 H
b11 1
b11 N
b11 Q
#1089000
b100100000 5
b100100000 I
b100100000 J
#1091000
b1001000000 -
b1001000000 =
b1001000000 C
b1 3
b1 @
b1 A
#1116000
0*
0!
#1137000
b100111011 .
b100111011 8
b100111011 L
#1140000
b100111011 /
b100111011 :
b100111011 E
#1147000
1*
1!
#1150000
b0 2
b0 >
b0 R
b10010000000 ,
b10010000000 ;
b10010000000 P
b1000000 M
b1 B
b1 H
b1 1
b1 N
b1 Q
b1001000000 D
b1001000000 +
b1001000000 G
b1001000000 O
b100111011 F
b100111011 "
b100111011 6
b100111011 K
#1151000
b1001000000 5
b1001000000 I
b1001000000 J
#1153000
b0 3
b0 @
b0 A
b10010000000 -
b10010000000 =
b10010000000 C
#1178000
0*
0!
#1199000
b1101111011 .
b1101111011 8
b1101111011 L
#1202000
b1101111011 /
b1101111011 :
b1101111011 E
#1209000
1*
1!
#1212000
b100100000000 ,
b100100000000 ;
b100100000000 P
b10000000 M
b1101111011 F
b1101111011 "
b1101111011 6
b1101111011 K
b10010000000 D
b10010000000 +
b10010000000 G
b10010000000 O
b0 B
b0 H
b0 1
b0 N
b0 Q
#1213000
b0 5
b0 I
b0 J
#1215000
b100100000000 -
b100100000000 =
b100100000000 C
#1216000
1#
#1240000
0*
0!
#1271000
b10 '
1*
1!
#1274000
b1001000000000 ,
b1001000000000 ;
b1001000000000 P
b0 M
b100100000000 D
b100100000000 +
b100100000000 G
b100100000000 O
#1277000
b1001000000000 -
b1001000000000 =
b1001000000000 C
#1302000
0*
0!
#1333000
b11100101001 &
1)
17
b10001101 %
b10001101 4
b10001101 ?
b1101 $
b1101 0
b1101 <
1*
1!
#1336000
b10010000000000 ,
b10010000000000 ;
b10010000000000 P
b1001000000000 D
b1001000000000 +
b1001000000000 G
b1001000000000 O
b0 /
b0 :
b0 E
b1101 -
b1101 =
b1101 C
b10001101 3
b10001101 @
b10001101 A
#1364000
0*
0!
#1395000
0)
07
b0 %
b0 4
b0 ?
b0 $
b0 0
b0 <
1*
1!
#1398000
b1000110 2
b1000110 >
b1000110 R
b11010 ,
b11010 ;
b11010 P
b1101 M
b10001101 B
b10001101 H
b10001101 1
b10001101 N
b10001101 Q
b1101 D
b1101 +
b1101 G
b1101 O
b0 F
b0 "
b0 6
b0 K
b1101111011 /
b1101111011 :
b1101111011 E
b0 3
b0 @
b0 A
b10010000000000 -
b10010000000000 =
b10010000000000 C
#1399000
b1101 5
b1101 I
b1101 J
#1401000
b1000110 3
b1000110 @
b1000110 A
b11010 -
b11010 =
b11010 C
#1402000
0#
#1426000
0*
0!
#1447000
b1101 .
b1101 8
b1101 L
#1450000
b1101 /
b1101 :
b1101 E
#1457000
1*
1!
#1460000
b110100 ,
b110100 ;
b110100 P
b11010 M
b100011 2
b100011 >
b100011 R
b1101 F
b1101 "
b1101 6
b1101 K
b11010 D
b11010 +
b11010 G
b11010 O
b1000110 B
b1000110 H
b1000110 1
b1000110 N
b1000110 Q
#1461000
b0 5
b0 I
b0 J
#1463000
b110100 -
b110100 =
b110100 C
b100011 3
b100011 @
b100011 A
#1488000
0*
0!
#1519000
1*
1!
#1522000
b10001 2
b10001 >
b10001 R
b1101000 ,
b1101000 ;
b1101000 P
b110100 M
b100011 B
b100011 H
b100011 1
b100011 N
b100011 Q
b110100 D
b110100 +
b110100 G
b110100 O
#1523000
b110100 5
b110100 I
b110100 J
#1525000
b10001 3
b10001 @
b10001 A
b1101000 -
b1101000 =
b1101000 C
#1550000
0*
0!
#1571000
b1000001 .
b1000001 8
b1000001 L
#1574000
b1000001 /
b1000001 :
b1000001 E
#1581000
1*
1!
#1584000
b11010000 ,
b11010000 ;
b11010000 P
b1101000 M
b1000 2
b1000 >
b1000 R
b1000001 F
b1000001 "
b1000001 6
b1000001 K
b1101000 D
b1101000 +
b1101000 G
b1101000 O
b10001 B
b10001 H
b10001 1
b10001 N
b10001 Q
#1585000
b1101000 5
b1101000 I
b1101000 J
#1587000
b11010000 -
b11010000 =
b11010000 C
b1000 3
b1000 @
b1000 A
#1612000
0*
0!
#1633000
b10101001 .
b10101001 8
b10101001 L
#1636000
b10101001 /
b10101001 :
b10101001 E
#1643000
1*
1!
#1646000
b100 2
b100 >
b100 R
b110100000 ,
b110100000 ;
b110100000 P
b11010000 M
b1000 B
b1000 H
b1000 1
b1000 N
b1000 Q
b11010000 D
b11010000 +
b11010000 G
b11010000 O
b10101001 F
b10101001 "
b10101001 6
b10101001 K
#1647000
b0 5
b0 I
b0 J
#1649000
b100 3
b100 @
b100 A
b110100000 -
b110100000 =
b110100000 C
#1674000
0*
0!
#1705000
1*
1!
#1708000
b1101000000 ,
b1101000000 ;
b1101000000 P
b10100000 M
b10 2
b10 >
b10 R
b110100000 D
b110100000 +
b110100000 G
b110100000 O
b100 B
b100 H
b100 1
b100 N
b100 Q
#1711000
b1101000000 -
b1101000000 =
b1101000000 C
b10 3
b10 @
b10 A
#1736000
0*
0!
#1767000
1*
1!
#1770000
b1 2
b1 >
b1 R
b11010000000 ,
b11010000000 ;
b11010000000 P
b1000000 M
b10 B
b10 H
b10 1
b10 N
b10 Q
b1101000000 D
b1101000000 +
b1101000000 G
b1101000000 O
#1773000
b1 3
b1 @
b1 A
b11010000000 -
b11010000000 =
b11010000000 C
#1798000
0*
0!
#1829000
1*
1!
#1832000
b110100000000 ,
b110100000000 ;
b110100000000 P
b10000000 M
b0 2
b0 >
b0 R
b11010000000 D
b11010000000 +
b11010000000 G
b11010000000 O
b1 B
b1 H
b1 1
b1 N
b1 Q
#1833000
b11010000000 5
b11010000000 I
b11010000000 J
#1835000
b110100000000 -
b110100000000 =
b110100000000 C
b0 3
b0 @
b0 A
#1860000
0*
0!
#1881000
b11100101001 .
b11100101001 8
b11100101001 L
#1884000
b11100101001 /
b11100101001 :
b11100101001 E
#1891000
1*
1!
#1894000
b1101000000000 ,
b1101000000000 ;
b1101000000000 P
b0 M
b0 B
b0 H
b0 1
b0 N
b0 Q
b110100000000 D
b110100000000 +
b110100000000 G
b110100000000 O
b11100101001 F
b11100101001 "
b11100101001 6
b11100101001 K
#1895000
b0 5
b0 I
b0 J
#1897000
b1101000000000 -
b1101000000000 =
b1101000000000 C
#1898000
1#
#1922000
0*
0!
#1953000
b11 '
1*
1!
#1956000
b11010000000000 ,
b11010000000000 ;
b11010000000000 P
b1101000000000 D
b1101000000000 +
b1101000000000 G
b1101000000000 O
#1959000
b11010000000000 -
b11010000000000 =
b11010000000000 C
#1984000
0*
0!
#2015000
b11100011010 &
1)
17
b10010 %
b10010 4
b10010 ?
b1100101 $
b1100101 0
b1100101 <
1*
1!
#2018000
b110100000000000 ,
b110100000000000 ;
b110100000000000 P
b11010000000000 D
b11010000000000 +
b11010000000000 G
b11010000000000 O
b0 /
b0 :
b0 E
b1100101 -
b1100101 =
b1100101 C
b10010 3
b10010 @
b10010 A
#2046000
0*
0!
#2077000
0)
07
b0 %
b0 4
b0 ?
b0 $
b0 0
b0 <
1*
1!
#2080000
b11001010 ,
b11001010 ;
b11001010 P
b1100101 M
b1001 2
b1001 >
b1001 R
b0 F
b0 "
b0 6
b0 K
b1100101 D
b1100101 +
b1100101 G
b1100101 O
b10010 B
b10010 H
b10010 1
b10010 N
b10010 Q
b11100101001 /
b11100101001 :
b11100101001 E
b0 3
b0 @
b0 A
b110100000000000 -
b110100000000000 =
b110100000000000 C
#2083000
b11001010 -
b11001010 =
b11001010 C
b1001 3
b1001 @
b1001 A
#2084000
0#
#2108000
0*
0!
#2128000
b0 .
b0 8
b0 L
#2131000
b0 /
b0 :
b0 E
#2139000
1*
1!
#2142000
b100 2
b100 >
b100 R
b110010100 ,
b110010100 ;
b110010100 P
b11001010 M
b1001 B
b1001 H
b1001 1
b1001 N
b1001 Q
b11001010 D
b11001010 +
b11001010 G
b11001010 O
#2143000
b11001010 5
b11001010 I
b11001010 J
#2145000
b100 3
b100 @
b100 A
b110010100 -
b110010100 =
b110010100 C
#2170000
0*
0!
#2191000
b11001010 .
b11001010 8
b11001010 L
#2194000
b11001010 /
b11001010 :
b11001010 E
#2201000
1*
1!
#2204000
b1100101000 ,
b1100101000 ;
b1100101000 P
b10010100 M
b10 2
b10 >
b10 R
b11001010 F
b11001010 "
b11001010 6
b11001010 K
b110010100 D
b110010100 +
b110010100 G
b110010100 O
b100 B
b100 H
b100 1
b100 N
b100 Q
#2205000
b0 5
b0 I
b0 J
#2207000
b1100101000 -
b1100101000 =
b1100101000 C
b10 3
b10 @
b10 A
#2232000
0*
0!
#2263000
1*
1!
#2266000
b1 2
b1 >
b1 R
b11001010000 ,
b11001010000 ;
b11001010000 P
b101000 M
b10 B
b10 H
b10 1
b10 N
b10 Q
b1100101000 D
b1100101000 +
b1100101000 G
b1100101000 O
#2269000
b1 3
b1 @
b1 A
b11001010000 -
b11001010000 =
b11001010000 C
#2294000
0*
0!
#2325000
1*
1!
#2328000
b110010100000 ,
b110010100000 ;
b110010100000 P
b1010000 M
b0 2
b0 >
b0 R
b11001010000 D
b11001010000 +
b11001010000 G
b11001010000 O
b1 B
b1 H
b1 1
b1 N
b1 Q
#2329000
b11001010000 5
b11001010000 I
b11001010000 J
#2331000
b110010100000 -
b110010100000 =
b110010100000 C
b0 3
b0 @
b0 A
#2356000
0*
0!
#2377000
b11100011010 .
b11100011010 8
b11100011010 L
#2380000
b11100011010 /
b11100011010 :
b11100011010 E
#2387000
1*
1!
#2390000
b1100101000000 ,
b1100101000000 ;
b1100101000000 P
b10100000 M
b0 B
b0 H
b0 1
b0 N
b0 Q
b110010100000 D
b110010100000 +
b110010100000 G
b110010100000 O
b11100011010 F
b11100011010 "
b11100011010 6
b11100011010 K
#2391000
b0 5
b0 I
b0 J
#2393000
b1100101000000 -
b1100101000000 =
b1100101000000 C
#2394000
1#
#2418000
0*
0!
#2449000
b100 '
1*
1!
#2452000
b11001010000000 ,
b11001010000000 ;
b11001010000000 P
b1000000 M
b1100101000000 D
b1100101000000 +
b1100101000000 G
b1100101000000 O
#2455000
b11001010000000 -
b11001010000000 =
b11001010000000 C
#2480000
0*
0!
#2511000
b1101 &
1)
17
b1101 %
b1101 4
b1101 ?
b1 $
b1 0
b1 <
1*
1!
#2514000
b110010100000000 ,
b110010100000000 ;
b110010100000000 P
b10000000 M
b11001010000000 D
b11001010000000 +
b11001010000000 G
b11001010000000 O
b0 /
b0 :
b0 E
b1 -
b1 =
b1 C
b1101 3
b1101 @
b1101 A
#2542000
0*
0!
#2573000
0)
07
b0 %
b0 4
b0 ?
b0 $
b0 0
b0 <
1*
1!
#2576000
b10 ,
b10 ;
b10 P
b1 M
b110 2
b110 >
b110 R
b0 F
b0 "
b0 6
b0 K
b1 D
b1 +
b1 G
b1 O
b1101 B
b1101 H
b1101 1
b1101 N
b1101 Q
b11100011010 /
b11100011010 :
b11100011010 E
b0 3
b0 @
b0 A
b110010100000000 -
b110010100000000 =
b110010100000000 C
#2577000
b1 5
b1 I
b1 J
#2579000
b10 -
b10 =
b10 C
b110 3
b110 @
b110 A
#2580000
0#
#2604000
0*
0!
#2625000
b1 .
b1 8
b1 L
#2628000
b1 /
b1 :
b1 E
#2635000
1*
1!
#2638000
b11 2
b11 >
b11 R
b100 ,
b100 ;
b100 P
b10 M
b110 B
b110 H
b110 1
b110 N
b110 Q
b10 D
b10 +
b10 G
b10 O
b1 F
b1 "
b1 6
b1 K
#2639000
b0 5
b0 I
b0 J
#2641000
b11 3
b11 @
b11 A
b100 -
b100 =
b100 C
#2666000
0*
0!
#2697000
1*
1!
#2700000
b1000 ,
b1000 ;
b1000 P
b100 M
b1 2
b1 >
b1 R
b100 D
b100 +
b100 G
b100 O
b11 B
b11 H
b11 1
b11 N
b11 Q
#2701000
b100 5
b100 I
b100 J
#2703000
b1000 -
b1000 =
b1000 C
b1 3
b1 @
b1 A
#2728000
0*
0!
#2749000
b101 .
b101 8
b101 L
#2752000
b101 /
b101 :
b101 E
#2759000
1*
1!
#2762000
b0 2
b0 >
b0 R
b10000 ,
b10000 ;
b10000 P
b1000 M
b1 B
b1 H
b1 1
b1 N
b1 Q
b1000 D
b1000 +
b1000 G
b1000 O
b101 F
b101 "
b101 6
b101 K
#2763000
b1000 5
b1000 I
b1000 J
#2765000
b0 3
b0 @
b0 A
b10000 -
b10000 =
b10000 C
#2790000
0*
0!
#2811000
b1101 .
b1101 8
b1101 L
#2814000
b1101 /
b1101 :
b1101 E
#2821000
1*
1!
#2824000
b100000 ,
b100000 ;
b100000 P
b10000 M
b1101 F
b1101 "
b1101 6
b1101 K
b10000 D
b10000 +
b10000 G
b10000 O
b0 B
b0 H
b0 1
b0 N
b0 Q
#2825000
b0 5
b0 I
b0 J
#2827000
b100000 -
b100000 =
b100000 C
#2828000
1#
#2852000
0*
0!
#2883000
b101 '
1*
1!
#2886000
b1000000 ,
b1000000 ;
b1000000 P
b100000 M
b100000 D
b100000 +
b100000 G
b100000 O
#2889000
b1000000 -
b1000000 =
b1000000 C
#2914000
0*
0!
#2945000
b1110000011110 &
1)
17
b111101 %
b111101 4
b111101 ?
b1110110 $
b1110110 0
b1110110 <
1*
1!
#2948000
b10000000 ,
b10000000 ;
b10000000 P
b1000000 M
b1000000 D
b1000000 +
b1000000 G
b1000000 O
b0 /
b0 :
b0 E
b1110110 -
b1110110 =
b1110110 C
b111101 3
b111101 @
b111101 A
#2976000
0*
0!
#3007000
0)
07
b0 %
b0 4
b0 ?
b0 $
b0 0
b0 <
1*
1!
#3010000
b11110 2
b11110 >
b11110 R
b11101100 ,
b11101100 ;
b11101100 P
b1110110 M
b111101 B
b111101 H
b111101 1
b111101 N
b111101 Q
b1110110 D
b1110110 +
b1110110 G
b1110110 O
b0 F
b0 "
b0 6
b0 K
b1101 /
b1101 :
b1101 E
b0 3
b0 @
b0 A
b10000000 -
b10000000 =
b10000000 C
#3011000
b1110110 5
b1110110 I
b1110110 J
#3013000
b11110 3
b11110 @
b11110 A
b11101100 -
b11101100 =
b11101100 C
#3014000
0#
#3038000
0*
0!
#3059000
b1110110 .
b1110110 8
b1110110 L
#3062000
b1110110 /
b1110110 :
b1110110 E
#3069000
1*
1!
#3072000
b111011000 ,
b111011000 ;
b111011000 P
b11101100 M
b1111 2
b1111 >
b1111 R
b1110110 F
b1110110 "
b1110110 6
b1110110 K
b11101100 D
b11101100 +
b11101100 G
b11101100 O
b11110 B
b11110 H
b11110 1
b11110 N
b11110 Q
#3073000
b0 5
b0 I
b0 J
#3075000
b111011000 -
b111011000 =
b111011000 C
b1111 3
b1111 @
b1111 A
#3100000
0*
0!
#3131000
1*
1!
#3134000
b111 2
b111 >
b111 R
b1110110000 ,
b1110110000 ;
b1110110000 P
b11011000 M
b1111 B
b1111 H
b1111 1
b1111 N
b1111 Q
b111011000 D
b111011000 +
b111011000 G
b111011000 O
#3135000
b111011000 5
b111011000 I
b111011000 J
#3137000
b111 3
b111 @
b111 A
b1110110000 -
b1110110000 =
b1110110000 C
#3162000
0*
0!
#3183000
b1001001110 .
b1001001110 8
b1001001110 L
#3186000
b1001001110 /
b1001001110 :
b1001001110 E
#3193000
1*
1!
#3196000
b11101100000 ,
b11101100000 ;
b11101100000 P
b10110000 M
b11 2
b11 >
b11 R
b1001001110 F
b1001001110 "
b1001001110 6
b1001001110 K
b1110110000 D
b1110110000 +
b1110110000 G
b1110110000 O
b111 B
b111 H
b111 1
b111 N
b111 Q
#3197000
b1110110000 5
b1110110000 I
b1110110000 J
#3199000
b11101100000 -
b11101100000 =
b11101100000 C
b11 3
b11 @
b11 A
#3224000
0*
0!
#3245000
b10111111110 .
b10111111110 8
b10111111110 L
#3248000
b10111111110 /
b10111111110 :
b10111111110 E
#3255000
1*
1!
#3258000
b1 2
b1 >
b1 R
b111011000000 ,
b111011000000 ;
b111011000000 P
b1100000 M
b11 B
b11 H
b11 1
b11 N
b11 Q
b11101100000 D
b11101100000 +
b11101100000 G
b11101100000 O
b10111111110 F
b10111111110 "
b10111111110 6
b10111111110 K
#3259000
b11101100000 5
b11101100000 I
b11101100000 J
#3261000
b1 3
b1 @
b1 A
b111011000000 -
b111011000000 =
b111011000000 C
#3286000
0*
0!
#3307000
b110101011110 .
b110101011110 8
b110101011110 L
#3310000
b110101011110 /
b110101011110 :
b110101011110 E
#3317000
1*
1!
#3320000
b1110110000000 ,
b1110110000000 ;
b1110110000000 P
b11000000 M
b0 2
b0 >
b0 R
b110101011110 F
b110101011110 "
b110101011110 6
b110101011110 K
b111011000000 D
b111011000000 +
b111011000000 G
b111011000000 O
b1 B
b1 H
b1 1
b1 N
b1 Q
#3321000
b111011000000 5
b111011000000 I
b111011000000 J
#3323000
b1110110000000 -
b1110110000000 =
b1110110000000 C
b0 3
b0 @
b0 A
#3348000
0*
0!
#3369000
b1110000011110 .
b1110000011110 8
b1110000011110 L
#3372000
b1110000011110 /
b1110000011110 :
b1110000011110 E
#3379000
1*
1!
#3382000
b11101100000000 ,
b11101100000000 ;
b11101100000000 P
b10000000 M
b0 B
b0 H
b0 1
b0 N
b0 Q
b1110110000000 D
b1110110000000 +
b1110110000000 G
b1110110000000 O
b1110000011110 F
b1110000011110 "
b1110000011110 6
b1110000011110 K
#3383000
b0 5
b0 I
b0 J
#3385000
b11101100000000 -
b11101100000000 =
b11101100000000 C
#3386000
1#
#3410000
0*
0!
#3441000
b110 '
1*
1!
#3444000
b111011000000000 ,
b111011000000000 ;
b111011000000000 P
b0 M
b11101100000000 D
b11101100000000 +
b11101100000000 G
b11101100000000 O
#3447000
b111011000000000 -
b111011000000000 =
b111011000000000 C
#3472000
0*
0!
#3503000
b1000000110011100 &
1)
17
b10001100 %
b10001100 4
b10001100 ?
b11101101 $
b11101101 0
b11101101 <
1*
1!
#3506000
b1110110000000000 ,
b1110110000000000 ;
b1110110000000000 P
b111011000000000 D
b111011000000000 +
b111011000000000 G
b111011000000000 O
b0 /
b0 :
b0 E
b11101101 -
b11101101 =
b11101101 C
b10001100 3
b10001100 @
b10001100 A
#3534000
0*
0!
#3565000
0)
07
b0 %
b0 4
b0 ?
b0 $
b0 0
b0 <
1*
1!
#3568000
b111011010 ,
b111011010 ;
b111011010 P
b11101101 M
b1000110 2
b1000110 >
b1000110 R
b0 F
b0 "
b0 6
b0 K
b11101101 D
b11101101 +
b11101101 G
b11101101 O
b10001100 B
b10001100 H
b10001100 1
b10001100 N
b10001100 Q
b1110000011110 /
b1110000011110 :
b1110000011110 E
b0 3
b0 @
b0 A
b1110110000000000 -
b1110110000000000 =
b1110110000000000 C
#3571000
b111011010 -
b111011010 =
b111011010 C
b1000110 3
b1000110 @
b1000110 A
#3572000
0#
#3596000
0*
0!
#3616000
b0 .
b0 8
b0 L
#3619000
b0 /
b0 :
b0 E
#3627000
1*
1!
#3630000
b100011 2
b100011 >
b100011 R
b1110110100 ,
b1110110100 ;
b1110110100 P
b11011010 M
b1000110 B
b1000110 H
b1000110 1
b1000110 N
b1000110 Q
b111011010 D
b111011010 +
b111011010 G
b111011010 O
#3633000
b100011 3
b100011 @
b100011 A
b1110110100 -
b1110110100 =
b1110110100 C
#3658000
0*
0!
#3689000
1*
1!
